EESchema Schematic File Version 4
EELAYER 30 0
EELAYER END
$Descr A4 11693 8268
encoding utf-8
Sheet 1 1
Title ""
Date ""
Rev ""
Comp ""
Comment1 ""
Comment2 ""
Comment3 ""
Comment4 ""
$EndDescr
$Comp
L power:+3V3 #PWR03
U 1 1 5E2994E9
P 4100 1650
F 0 "#PWR03" H 4100 1500 50  0001 C CNN
F 1 "+3V3" H 4115 1823 50  0000 C CNN
F 2 "" H 4100 1650 50  0001 C CNN
F 3 "" H 4100 1650 50  0001 C CNN
	1    4100 1650
	1    0    0    -1  
$EndComp
Wire Wire Line
	4100 1650 4100 1850
Wire Wire Line
	4100 1850 4250 1850
$Comp
L power:GND #PWR06
U 1 1 5E299E17
P 4100 3500
F 0 "#PWR06" H 4100 3250 50  0001 C CNN
F 1 "GND" H 4105 3327 50  0000 C CNN
F 2 "" H 4100 3500 50  0001 C CNN
F 3 "" H 4100 3500 50  0001 C CNN
	1    4100 3500
	1    0    0    -1  
$EndComp
Wire Wire Line
	4100 3500 4100 3350
$Comp
L power:+5V #PWR05
U 1 1 5E29A8CD
P 3750 3200
F 0 "#PWR05" H 3750 3050 50  0001 C CNN
F 1 "+5V" H 3765 3373 50  0000 C CNN
F 2 "" H 3750 3200 50  0001 C CNN
F 3 "" H 3750 3200 50  0001 C CNN
	1    3750 3200
	1    0    0    -1  
$EndComp
Wire Wire Line
	3750 3200 3750 3250
Wire Wire Line
	3750 3250 4250 3250
$Comp
L power:GND #PWR07
U 1 1 5E29C404
P 6600 3850
F 0 "#PWR07" H 6600 3600 50  0001 C CNN
F 1 "GND" H 6605 3677 50  0000 C CNN
F 2 "" H 6600 3850 50  0001 C CNN
F 3 "" H 6600 3850 50  0001 C CNN
	1    6600 3850
	1    0    0    -1  
$EndComp
Wire Wire Line
	6600 1850 5750 1850
Wire Wire Line
	5750 2150 6500 2150
Wire Wire Line
	6500 2150 6500 3050
Wire Wire Line
	6500 3050 5750 3050
NoConn ~ 5750 2050
NoConn ~ 5750 1950
NoConn ~ 4250 1950
$Comp
L power:+3V3 #PWR02
U 1 1 5E29F120
P 6500 1600
F 0 "#PWR02" H 6500 1450 50  0001 C CNN
F 1 "+3V3" H 6515 1773 50  0000 C CNN
F 2 "" H 6500 1600 50  0001 C CNN
F 3 "" H 6500 1600 50  0001 C CNN
	1    6500 1600
	1    0    0    -1  
$EndComp
Wire Wire Line
	6500 1600 6500 1700
Connection ~ 6500 2150
Wire Wire Line
	6600 1850 6600 2450
Wire Wire Line
	5750 2450 6600 2450
Connection ~ 6600 2450
Wire Wire Line
	6600 2450 6600 2550
Wire Wire Line
	5750 2550 6600 2550
Connection ~ 6600 2550
Wire Wire Line
	6600 2550 6600 3550
Wire Wire Line
	5750 3550 6600 3550
Connection ~ 6600 3550
$Comp
L LED:SK6812 D1
U 1 1 5E2A0647
P 2050 5250
F 0 "D1" H 2394 5296 50  0000 L CNN
F 1 "SK6812" H 2394 5205 50  0000 L CNN
F 2 "LED_SMD:LED_SK6812_PLCC4_5.0x5.0mm_P3.2mm" H 2100 4950 50  0001 L TNN
F 3 "https://cdn-shop.adafruit.com/product-files/1138/SK6812+LED+datasheet+.pdf" H 2150 4875 50  0001 L TNN
	1    2050 5250
	1    0    0    -1  
$EndComp
$Comp
L LED:SK6812 D2
U 1 1 5E2A16CA
P 3050 5250
F 0 "D2" H 3394 5296 50  0000 L CNN
F 1 "SK6812" H 3394 5205 50  0000 L CNN
F 2 "LED_SMD:LED_SK6812_PLCC4_5.0x5.0mm_P3.2mm" H 3100 4950 50  0001 L TNN
F 3 "https://cdn-shop.adafruit.com/product-files/1138/SK6812+LED+datasheet+.pdf" H 3150 4875 50  0001 L TNN
	1    3050 5250
	1    0    0    -1  
$EndComp
Wire Wire Line
	2350 5250 2750 5250
NoConn ~ 3350 5250
$Comp
L Connector_Generic:Conn_01x06 J3
U 1 1 5E2A43EE
P 9700 3600
F 0 "J3" H 9618 4017 50  0000 C CNN
F 1 "Conn_01x06" H 9618 3926 50  0000 C CNN
F 2 "Connector_PinHeader_2.54mm:PinHeader_1x06_P2.54mm_Vertical" H 9700 3600 50  0001 C CNN
F 3 "~" H 9700 3600 50  0001 C CNN
	1    9700 3600
	1    0    0    -1  
$EndComp
Wire Wire Line
	5750 2250 6250 2250
Wire Wire Line
	5750 2350 6250 2350
Text Label 6250 2250 2    50   ~ 0
scl
Text Label 6250 2350 2    50   ~ 0
sda
Wire Wire Line
	5750 3750 6250 3750
Text Label 6250 3750 2    50   ~ 0
oled_en
Text Label 6250 3350 2    50   ~ 0
button2
Text Label 6250 3650 2    50   ~ 0
button1
Text Label 3900 2550 0    50   ~ 0
vsense
NoConn ~ 5750 2950
Wire Wire Line
	5750 3250 6250 3250
Text Label 6250 3250 2    50   ~ 0
bme_en
$Comp
L Connector:TestPoint TP1
U 1 1 5E2AB429
P 1400 1300
F 0 "TP1" V 1595 1372 50  0000 C CNN
F 1 "TestPoint" V 1504 1372 50  0000 C CNN
F 2 "TestPoint:TestPoint_THTPad_1.5x1.5mm_Drill0.7mm" H 1600 1300 50  0001 C CNN
F 3 "~" H 1600 1300 50  0001 C CNN
	1    1400 1300
	1    0    0    -1  
$EndComp
$Comp
L Device:R R2
U 1 1 5E2ABB03
P 2750 2300
F 0 "R2" H 2820 2346 50  0000 L CNN
F 1 "68K[1%]" H 2820 2255 50  0000 L CNN
F 2 "Resistor_SMD:R_0603_1608Metric_Pad1.05x0.95mm_HandSolder" V 2680 2300 50  0001 C CNN
F 3 "~" H 2750 2300 50  0001 C CNN
	1    2750 2300
	1    0    0    -1  
$EndComp
$Comp
L Device:R R3
U 1 1 5E2ABE41
P 2750 2750
F 0 "R3" H 2820 2796 50  0000 L CNN
F 1 "220K[1%]" H 2820 2705 50  0000 L CNN
F 2 "Resistor_SMD:R_0603_1608Metric_Pad1.05x0.95mm_HandSolder" V 2680 2750 50  0001 C CNN
F 3 "~" H 2750 2750 50  0001 C CNN
	1    2750 2750
	1    0    0    -1  
$EndComp
Wire Wire Line
	2750 2450 2750 2550
Connection ~ 2750 2550
Wire Wire Line
	2750 2550 2750 2600
Wire Wire Line
	2750 2900 2750 3350
Wire Wire Line
	2750 2550 4250 2550
Connection ~ 4100 3350
Wire Wire Line
	4100 3350 4250 3350
Wire Wire Line
	5450 5250 5850 5250
Wire Wire Line
	5450 5350 5850 5350
Text Label 5850 5250 2    50   ~ 0
scl
Text Label 5850 5350 2    50   ~ 0
sda
$Comp
L power:+3V3 #PWR010
U 1 1 5E2BF8C0
P 5850 4750
F 0 "#PWR010" H 5850 4600 50  0001 C CNN
F 1 "+3V3" H 5865 4923 50  0000 C CNN
F 2 "" H 5850 4750 50  0001 C CNN
F 3 "" H 5850 4750 50  0001 C CNN
	1    5850 4750
	-1   0    0    -1  
$EndComp
$Comp
L Switch:SW_Push SW2
U 1 1 5E2C6553
P 9000 1850
F 0 "SW2" V 8954 1802 50  0000 R CNN
F 1 "TL59FF160Q" V 9045 1802 50  0000 R CNN
F 2 "weather_station:SW_Tactile_SPST-NO_TL59FFyyyQ" H 9000 2050 50  0001 C CNN
F 3 "~" H 9000 2050 50  0001 C CNN
	1    9000 1850
	0    -1   -1   0   
$EndComp
$Comp
L Switch:SW_Push SW1
U 1 1 5E2C6C88
P 9550 1850
F 0 "SW1" V 9504 1998 50  0000 L CNN
F 1 "TL59FF160Q" V 9595 1998 50  0000 L CNN
F 2 "weather_station:SW_Tactile_SPST-NO_TL59FFyyyQ" H 9550 2050 50  0001 C CNN
F 3 "~" H 9550 2050 50  0001 C CNN
	1    9550 1850
	0    1    -1   0   
$EndComp
Wire Wire Line
	9000 1550 9300 1550
$Comp
L power:+3V3 #PWR01
U 1 1 5E2CFB06
P 9300 1450
F 0 "#PWR01" H 9300 1300 50  0001 C CNN
F 1 "+3V3" H 9300 1600 50  0000 C CNN
F 2 "" H 9300 1450 50  0001 C CNN
F 3 "" H 9300 1450 50  0001 C CNN
	1    9300 1450
	1    0    0    -1  
$EndComp
Wire Wire Line
	5750 3350 6250 3350
Wire Wire Line
	5750 3450 6250 3450
Wire Wire Line
	6600 3550 6600 3800
Wire Wire Line
	9000 1650 9000 1550
Wire Wire Line
	9550 1650 9550 1550
Wire Wire Line
	9550 2150 9900 2150
Wire Wire Line
	9550 2150 9550 2050
Text Label 9900 2150 2    50   ~ 0
button1
Wire Wire Line
	9000 2150 8650 2150
Wire Wire Line
	9000 2150 9000 2050
Text Label 8650 2150 0    50   ~ 0
button2
Wire Wire Line
	9300 1450 9300 1550
Connection ~ 9300 1550
Wire Wire Line
	9300 1550 9550 1550
Text Notes 8650 1200 0    50   ~ 0
Buttons (using internal pull-down)
Wire Wire Line
	2750 3350 4100 3350
$Comp
L Device:Q_NMOS_DGS Q2
U 1 1 5E2FB904
P 9150 4300
F 0 "Q2" H 9355 4346 50  0000 L CNN
F 1 "DMN63D8L" H 9355 4255 50  0000 L CNN
F 2 "Package_TO_SOT_SMD:SOT-23" H 9350 4400 50  0001 C CNN
F 3 "~" H 9150 4300 50  0001 C CNN
	1    9150 4300
	1    0    0    -1  
$EndComp
$Comp
L power:+3V3 #PWR04
U 1 1 5E2FCE12
P 9250 3100
F 0 "#PWR04" H 9250 2950 50  0001 C CNN
F 1 "+3V3" H 9265 3273 50  0000 C CNN
F 2 "" H 9250 3100 50  0001 C CNN
F 3 "" H 9250 3100 50  0001 C CNN
	1    9250 3100
	-1   0    0    -1  
$EndComp
Text Label 8100 4300 0    50   ~ 0
bme_en
Wire Wire Line
	5750 3150 6250 3150
Text Label 6250 3150 2    50   ~ 0
vbat_en
Text Label 1400 1850 0    50   ~ 0
vbat_en
$Comp
L Device:Q_PMOS_DGS Q1
U 1 1 5E30DAAC
P 2650 1850
F 0 "Q1" H 2855 1804 50  0000 L CNN
F 1 "DMG2305UX" H 2855 1895 50  0000 L CNN
F 2 "Package_TO_SOT_SMD:SOT-23" H 2850 1950 50  0001 C CNN
F 3 "~" H 2650 1850 50  0001 C CNN
	1    2650 1850
	1    0    0    1   
$EndComp
Wire Wire Line
	2750 2050 2750 2150
Text Label 1500 1550 0    50   ~ 0
vbat
Wire Wire Line
	4250 2250 3900 2250
Wire Wire Line
	4250 2350 3900 2350
Wire Wire Line
	4250 2450 3900 2450
Text Label 3900 2250 0    50   ~ 0
io32
Text Label 3900 2350 0    50   ~ 0
io33
Text Label 3900 2450 0    50   ~ 0
io34
Wire Wire Line
	5750 2750 6250 2750
Text Label 6250 2750 2    50   ~ 0
vspid_mosi
Wire Wire Line
	5750 2850 6250 2850
Text Label 6250 2850 2    50   ~ 0
vspiclk
Wire Wire Line
	5750 2650 6250 2650
Text Label 6250 2650 2    50   ~ 0
vspiq_miso
Wire Wire Line
	5750 3650 6250 3650
Text Label 6250 3450 2    50   ~ 0
io0
Text Notes 5050 4450 0    50   ~ 0
Oled display connector
Text Notes 8750 2750 0    50   ~ 0
BME280 module connector
Wire Wire Line
	9500 3500 9250 3500
Wire Wire Line
	9250 3500 9250 4100
$Comp
L power:GND #PWR08
U 1 1 5E347546
P 9250 4650
F 0 "#PWR08" H 9250 4400 50  0001 C CNN
F 1 "GND" H 9255 4477 50  0000 C CNN
F 2 "" H 9250 4650 50  0001 C CNN
F 3 "" H 9250 4650 50  0001 C CNN
	1    9250 4650
	1    0    0    -1  
$EndComp
Wire Wire Line
	9500 3600 8900 3600
Wire Wire Line
	9500 3700 8900 3700
Text Label 8900 3600 0    50   ~ 0
scl
Text Label 8900 3700 0    50   ~ 0
sda
Wire Wire Line
	9500 3800 8900 3800
Wire Wire Line
	9500 3900 8900 3900
Text Label 8900 3800 0    50   ~ 0
csb
Text Label 8900 3900 0    50   ~ 0
sdo
NoConn ~ 8900 3800
NoConn ~ 8900 3900
$Comp
L power:+5V #PWR09
U 1 1 5E35F349
P 2050 4750
F 0 "#PWR09" H 2050 4600 50  0001 C CNN
F 1 "+5V" H 2065 4923 50  0000 C CNN
F 2 "" H 2050 4750 50  0001 C CNN
F 3 "" H 2050 4750 50  0001 C CNN
	1    2050 4750
	1    0    0    -1  
$EndComp
Wire Wire Line
	2050 4750 2050 4850
Wire Wire Line
	2050 4850 3050 4850
Wire Wire Line
	3050 4850 3050 4950
Connection ~ 2050 4850
Wire Wire Line
	2050 4850 2050 4950
Wire Wire Line
	2050 5650 3050 5650
Wire Wire Line
	3050 5650 3050 5550
$Comp
L Device:Q_NMOS_DGS Q4
U 1 1 5E366BC4
P 5650 5950
F 0 "Q4" H 5855 5996 50  0000 L CNN
F 1 "DMN63D8L" H 5855 5905 50  0000 L CNN
F 2 "Package_TO_SOT_SMD:SOT-23" H 5850 6050 50  0001 C CNN
F 3 "~" H 5650 5950 50  0001 C CNN
	1    5650 5950
	-1   0    0    -1  
$EndComp
Connection ~ 3050 5650
Wire Wire Line
	5550 6150 5550 6250
$Comp
L power:GND #PWR015
U 1 1 5E36CA9A
P 5550 6250
F 0 "#PWR015" H 5550 6000 50  0001 C CNN
F 1 "GND" H 5555 6077 50  0000 C CNN
F 2 "" H 5550 6250 50  0001 C CNN
F 3 "" H 5550 6250 50  0001 C CNN
	1    5550 6250
	1    0    0    -1  
$EndComp
Wire Wire Line
	1750 5250 1650 5250
Text Label 900  5250 0    50   ~ 0
vspid_mosi
Wire Wire Line
	5850 5950 5950 5950
Text Label 6700 5950 2    50   ~ 0
oled_en
Text Notes 2650 4450 2    50   ~ 0
RGB Leds
$Comp
L Device:C C1
U 1 1 5E375FE2
P 3800 5250
F 0 "C1" H 3915 5296 50  0000 L CNN
F 1 "100n" H 3915 5205 50  0000 L CNN
F 2 "Capacitor_SMD:C_0603_1608Metric_Pad1.05x0.95mm_HandSolder" H 3838 5100 50  0001 C CNN
F 3 "~" H 3800 5250 50  0001 C CNN
	1    3800 5250
	1    0    0    -1  
$EndComp
$Comp
L Device:C C2
U 1 1 5E3762D7
P 4150 5250
F 0 "C2" H 4265 5296 50  0000 L CNN
F 1 "100n" H 4265 5205 50  0000 L CNN
F 2 "Capacitor_SMD:C_0603_1608Metric_Pad1.05x0.95mm_HandSolder" H 4188 5100 50  0001 C CNN
F 3 "~" H 4150 5250 50  0001 C CNN
	1    4150 5250
	1    0    0    -1  
$EndComp
$Comp
L Device:C C3
U 1 1 5E376521
P 4500 5250
F 0 "C3" H 4615 5296 50  0000 L CNN
F 1 "10u" H 4615 5205 50  0000 L CNN
F 2 "Capacitor_SMD:C_0603_1608Metric_Pad1.05x0.95mm_HandSolder" H 4538 5100 50  0001 C CNN
F 3 "~" H 4500 5250 50  0001 C CNN
	1    4500 5250
	1    0    0    -1  
$EndComp
Wire Wire Line
	3800 4850 3800 5100
Wire Wire Line
	3800 4850 4150 4850
Wire Wire Line
	4500 4850 4500 5100
Wire Wire Line
	4150 5100 4150 4850
Connection ~ 4150 4850
Wire Wire Line
	4150 4850 4500 4850
Wire Wire Line
	4500 5650 4500 5400
Wire Wire Line
	4150 5400 4150 5650
Connection ~ 4150 5650
Wire Wire Line
	4150 5650 4500 5650
Wire Wire Line
	3800 5400 3800 5650
Wire Wire Line
	3800 5650 4150 5650
$Comp
L Device:R R5
U 1 1 5E3897A1
P 1500 5250
F 0 "R5" V 1707 5250 50  0000 C CNN
F 1 "330" V 1616 5250 50  0000 C CNN
F 2 "Resistor_SMD:R_0603_1608Metric_Pad1.05x0.95mm_HandSolder" V 1430 5250 50  0001 C CNN
F 3 "~" H 1500 5250 50  0001 C CNN
	1    1500 5250
	0    -1   -1   0   
$EndComp
Wire Wire Line
	1350 5250 900  5250
Wire Wire Line
	5850 4750 5850 5150
$Comp
L Device:R R1
U 1 1 5E3C4026
P 1950 1850
F 0 "R1" V 2157 1850 50  0000 C CNN
F 1 "3.3K" V 2066 1850 50  0000 C CNN
F 2 "Resistor_SMD:R_0603_1608Metric_Pad1.05x0.95mm_HandSolder" V 1880 1850 50  0001 C CNN
F 3 "~" H 1950 1850 50  0001 C CNN
	1    1950 1850
	0    -1   -1   0   
$EndComp
Wire Wire Line
	1800 1850 1400 1850
$Comp
L Device:R R7
U 1 1 5E3C456D
P 6100 5950
F 0 "R7" V 6307 5950 50  0000 C CNN
F 1 "3.3K" V 6216 5950 50  0000 C CNN
F 2 "Resistor_SMD:R_0603_1608Metric_Pad1.05x0.95mm_HandSolder" V 6030 5950 50  0001 C CNN
F 3 "~" H 6100 5950 50  0001 C CNN
	1    6100 5950
	0    -1   -1   0   
$EndComp
Wire Wire Line
	6250 5950 6700 5950
$Comp
L Device:R R4
U 1 1 5E3C4B71
P 8700 4300
F 0 "R4" V 8907 4300 50  0000 C CNN
F 1 "3.3K" V 8816 4300 50  0000 C CNN
F 2 "Resistor_SMD:R_0603_1608Metric_Pad1.05x0.95mm_HandSolder" V 8630 4300 50  0001 C CNN
F 3 "~" H 8700 4300 50  0001 C CNN
	1    8700 4300
	0    -1   -1   0   
$EndComp
Wire Wire Line
	2100 1850 2450 1850
Wire Wire Line
	8850 4300 8950 4300
Wire Wire Line
	8550 4300 8100 4300
Wire Wire Line
	9250 4500 9250 4650
Wire Wire Line
	9250 3100 9250 3400
Wire Wire Line
	9250 3400 9500 3400
Wire Wire Line
	3050 5650 3800 5650
Connection ~ 3800 5650
Wire Wire Line
	3050 4850 3800 4850
Connection ~ 3050 4850
Connection ~ 3800 4850
Wire Wire Line
	5450 5050 5550 5050
Wire Wire Line
	5450 5150 5850 5150
Text Notes 1850 1050 0    50   ~ 0
Baterry voltage sensing
Wire Wire Line
	2750 1550 2750 1650
$Comp
L Connector_Generic:Conn_02x06_Odd_Even J5
U 1 1 5E425EAA
P 7300 5200
F 0 "J5" H 7350 5617 50  0000 C CNN
F 1 "Conn_02x06_Odd_Even" H 7350 5526 50  0000 C CNN
F 2 "Connector_PinHeader_2.54mm:PinHeader_2x06_P2.54mm_Vertical" H 7300 5200 50  0001 C CNN
F 3 "~" H 7300 5200 50  0001 C CNN
	1    7300 5200
	1    0    0    -1  
$EndComp
$Comp
L power:GND #PWR013
U 1 1 5E426C22
P 7350 5800
F 0 "#PWR013" H 7350 5550 50  0001 C CNN
F 1 "GND" H 7355 5627 50  0000 C CNN
F 2 "" H 7350 5800 50  0001 C CNN
F 3 "" H 7350 5800 50  0001 C CNN
	1    7350 5800
	1    0    0    -1  
$EndComp
Wire Wire Line
	7100 5500 7000 5500
Wire Wire Line
	7000 5500 7000 5700
Wire Wire Line
	7000 5700 7350 5700
Wire Wire Line
	7350 5700 7350 5800
Wire Wire Line
	7600 5500 7700 5500
Wire Wire Line
	7700 5500 7700 5700
Wire Wire Line
	7700 5700 7350 5700
Connection ~ 7350 5700
$Comp
L power:+5V #PWR011
U 1 1 5E42E671
P 6800 4900
F 0 "#PWR011" H 6800 4750 50  0001 C CNN
F 1 "+5V" H 6815 5073 50  0000 C CNN
F 2 "" H 6800 4900 50  0001 C CNN
F 3 "" H 6800 4900 50  0001 C CNN
	1    6800 4900
	1    0    0    -1  
$EndComp
$Comp
L power:+3V3 #PWR012
U 1 1 5E42F0A7
P 7900 4900
F 0 "#PWR012" H 7900 4750 50  0001 C CNN
F 1 "+3V3" H 7915 5073 50  0000 C CNN
F 2 "" H 7900 4900 50  0001 C CNN
F 3 "" H 7900 4900 50  0001 C CNN
	1    7900 4900
	-1   0    0    -1  
$EndComp
Wire Wire Line
	6800 4900 6800 5000
Wire Wire Line
	6800 5000 7100 5000
Wire Wire Line
	7600 5000 7900 5000
Wire Wire Line
	7900 5000 7900 4900
Wire Wire Line
	7100 5100 6650 5100
Wire Wire Line
	7100 5200 6650 5200
Wire Wire Line
	7100 5300 6650 5300
Wire Wire Line
	7100 5400 6650 5400
Text Label 6650 5100 0    50   ~ 0
io0
Text Label 6650 5200 0    50   ~ 0
io32
Text Label 6650 5300 0    50   ~ 0
io33
Text Label 6650 5400 0    50   ~ 0
io34
Wire Wire Line
	7600 5100 8050 5100
Wire Wire Line
	7600 5200 8050 5200
Wire Wire Line
	7600 5300 8050 5300
Wire Wire Line
	7600 5400 8050 5400
Text Label 8050 5100 2    50   ~ 0
vspiq_miso
Text Label 8050 5200 2    50   ~ 0
vspid_mosi
Text Label 8050 5300 2    50   ~ 0
vspiclk
Text Label 8050 5400 2    50   ~ 0
vspics0
Wire Wire Line
	4250 2950 3900 2950
Wire Wire Line
	4250 3050 3900 3050
Text Label 3900 2950 0    50   ~ 0
io14
Text Label 3900 3050 0    50   ~ 0
vspics0
Wire Wire Line
	5550 5050 5550 5750
$Comp
L Device:Q_NMOS_DGS Q3
U 1 1 5E47F221
P 1950 5950
F 0 "Q3" H 2155 5996 50  0000 L CNN
F 1 "DMN63D8L" H 2155 5905 50  0000 L CNN
F 2 "Package_TO_SOT_SMD:SOT-23" H 2150 6050 50  0001 C CNN
F 3 "~" H 1950 5950 50  0001 C CNN
	1    1950 5950
	1    0    0    -1  
$EndComp
Wire Wire Line
	2050 6150 2050 6250
$Comp
L power:GND #PWR014
U 1 1 5E47F228
P 2050 6250
F 0 "#PWR014" H 2050 6000 50  0001 C CNN
F 1 "GND" H 2055 6077 50  0000 C CNN
F 2 "" H 2050 6250 50  0001 C CNN
F 3 "" H 2050 6250 50  0001 C CNN
	1    2050 6250
	-1   0    0    -1  
$EndComp
Wire Wire Line
	1750 5950 1650 5950
$Comp
L Device:R R6
U 1 1 5E47F22F
P 1500 5950
F 0 "R6" V 1707 5950 50  0000 C CNN
F 1 "3.3K" V 1616 5950 50  0000 C CNN
F 2 "Resistor_SMD:R_0603_1608Metric_Pad1.05x0.95mm_HandSolder" V 1430 5950 50  0001 C CNN
F 3 "~" H 1500 5950 50  0001 C CNN
	1    1500 5950
	0    1    -1   0   
$EndComp
Wire Wire Line
	1350 5950 900  5950
Wire Wire Line
	2050 5650 2050 5750
Text Label 900  5950 0    50   ~ 0
io14
NoConn ~ 4250 3150
NoConn ~ 4250 2650
NoConn ~ 4250 2750
NoConn ~ 4250 2850
NoConn ~ 4250 2050
NoConn ~ 4250 2150
$Comp
L power:PWR_FLAG #FLG0101
U 1 1 5E4BF732
P 6900 1600
F 0 "#FLG0101" H 6900 1675 50  0001 C CNN
F 1 "PWR_FLAG" H 6900 1773 50  0000 C CNN
F 2 "" H 6900 1600 50  0001 C CNN
F 3 "~" H 6900 1600 50  0001 C CNN
	1    6900 1600
	1    0    0    -1  
$EndComp
Wire Wire Line
	6500 1700 6900 1700
Wire Wire Line
	6900 1700 6900 1600
Connection ~ 6500 1700
Wire Wire Line
	6500 1700 6500 2150
$Comp
L power:PWR_FLAG #FLG0102
U 1 1 5E4C4707
P 3450 3200
F 0 "#FLG0102" H 3450 3275 50  0001 C CNN
F 1 "PWR_FLAG" H 3450 3373 50  0000 C CNN
F 2 "" H 3450 3200 50  0001 C CNN
F 3 "~" H 3450 3200 50  0001 C CNN
	1    3450 3200
	1    0    0    -1  
$EndComp
Wire Wire Line
	3450 3200 3450 3250
Wire Wire Line
	3450 3250 3750 3250
Connection ~ 3750 3250
$Comp
L power:PWR_FLAG #FLG0103
U 1 1 5E4C9D4A
P 6850 3750
F 0 "#FLG0103" H 6850 3825 50  0001 C CNN
F 1 "PWR_FLAG" H 6850 3923 50  0000 C CNN
F 2 "" H 6850 3750 50  0001 C CNN
F 3 "~" H 6850 3750 50  0001 C CNN
	1    6850 3750
	1    0    0    -1  
$EndComp
Wire Wire Line
	6850 3750 6850 3800
Wire Wire Line
	6850 3800 6600 3800
Connection ~ 6600 3800
Wire Wire Line
	6600 3800 6600 3850
Wire Wire Line
	2050 5550 2050 5650
Connection ~ 2050 5650
$Comp
L weather_station:Oled-I2C J4
U 1 1 5E52836B
P 5450 5050
F 0 "J4" V 5185 4828 50  0000 C CNN
F 1 "Oled-I2C" V 5276 4828 50  0000 C CNN
F 2 "weather_station:Oled_0.96p_SSD1306_I2C" H 5450 5050 50  0001 C CNN
F 3 "" H 5450 5050 50  0001 C CNN
	1    5450 5050
	0    1    1    0   
$EndComp
$Comp
L symbols:Lolin32 U1
U 1 1 5E2B00F4
P 4750 2800
F 0 "U1" H 5000 3997 60  0000 C CNN
F 1 "Lolin32" H 5000 3891 60  0000 C CNN
F 2 "footprints:Lolin32" H 4600 2650 60  0001 C CNN
F 3 "" H 4600 2650 60  0001 C CNN
	1    4750 2800
	1    0    0    -1  
$EndComp
Wire Wire Line
	1400 1300 1400 1550
Wire Wire Line
	1400 1550 2750 1550
$EndSCHEMATC
